My Blog: Introduction to functions
…
  x %>%
    group_by(!!cat_var1, !!cat_var2) %>%
    summarize(mean = mean(!!num_var, na.rm = TRUE),
              sd = sd(!!num_var, na.rm = TRUE), 
              min = min(!!num_var, na.rm = TRUE), 
              max = max(!!num_var, na.rm = TRUE))%>%
    spread(!!cat_var1, mean)
}
fun3_mean2groups(recent_drug, mental_health, income, age_marijuana)

# A tibble: 48 x 8
   income               sd   min   max `Don't know`    No   Yes `<NA>`
   <chr>             <dbl> <dbl> <dbl>        <dbl> <dbl> <dbl>  <dbl>
 1 $0 - $4,999        4.57    10    21           NA  NA    15.2   NA  
 2 $0 - $4,999        4.63     8    23           NA  NA    NA     16.2
 3 $0 - $4,999        4.83     7    30           NA  17.5  NA     NA  
 4 $100,000 and over  5.26    13    39           NA  NA    NA     18.5
 5 $100,000 and over  5.61     6    50           NA  17.7  NA     NA  
 6 $100,000 and over  8.82    13    45           NA  NA    19.8   NA  
 7 $15,000 to $19,9~  2.12    13    19           NA  NA    15.5   NA  
 8 $15,000 to $19,9~  3.39     9    24           NA  NA    NA     16.0
 9 $15,000 to $19,9~  3.91    10    35           NA  17.0  NA     NA  
10 $20,000 to $24,9~  2.57    12    22           NA  NA    16     NA  
# ... with 38 more rows
…
